…
Below is a table summarizing the number of items ordered from aisle. In
total, there are 134 aisles, with fresh vegetables and fresh fruits
holding the most items ordered by far.

``` r
instacart %>% 
  count(aisle) %>% 
  arrange(desc(n))
```

    ## # A tibble: 134 × 2
    ##    aisle                              n
    ##    <chr>                          <int>
    ##  1 fresh vegetables              150609
    ##  2 fresh fruits                  150473
    ##  3 packaged vegetables fruits     78493
    ##  4 yogurt                         55240
    ##  5 packaged cheese                41699
    ##  6 water seltzer sparkling water  36617
    ##  7 milk                           32644
    ##  8 chips pretzels                 31269
    ##  9 soy lactosefree                26240
    ## 10 bread                          23635
    ## # … with 124 more rows
…
| skim_variable | n_missing | complete_rate |  mean |     sd |  p0 | p25 | p50 | p75 |  p100 | hist  |
|:--------------|----------:|--------------:|------:|-------:|----:|----:|----:|----:|------:|:------|
| snow          |    381221 |          0.85 |  4.99 |  27.22 | -13 |   0 |   0 |   0 | 10160 | ▇▁▁▁▁ |
| snwd          |    591786 |          0.77 | 37.31 | 113.54 |   0 |   0 |   0 |   0 |  9195 | ▇▁▁▁▁ |
| tmax_new      |   1134358 |          0.56 | 13.64 |  10.97 | -38 |   5 |  15 |  23 |    60 | ▁▃▇▆▁ |
| tmin_new      |   1134420 |          0.56 |  2.92 |  10.06 | -59 |  -3 |   3 |  11 |    60 | ▁▁▇▂▁ |
| prcp_new      |    145838 |          0.94 |  2.81 |   7.72 |   0 |   0 |   0 |   2 |  2286 | ▇▁▁▁▁ |

``` r
noaa_3 %>% 
  count(snow, name = "n_obs", sort = TRUE)
```

    ## # A tibble: 282 × 2
    ##     snow   n_obs
    ##    <int>   <int>
    ##  1     0 2008508
    ##  2    NA  381221
    ##  3    25   31022
    ##  4    13   23095
    ##  5    51   18274
    ##  6    76   10173
    ##  7     8    9962
    ##  8     5    9748
    ##  9    38    9197
    ## 10     3    8790
    ## # … with 272 more rows
…
